  [
    {
        "url": "http://thebestbr.tk:80/get.php?username=&password=&type=m3u_plus&output=ts",
        "logos": "https://uploaddeimagens.com.br/images/001/710/490/full/icon.jpg/",
        "image": "https://uploaddeimagens.com.br/images/001/710/490/full/icon.jpg",
        "cache": 0,
        "name": "Lista Iptv"
    }
]